lab_13/ISA_part_1_submmission/project_15/project_15.sim/sim_1/behav/xsim/simulate.log
Vivado Simulator 2020.1.1
Time resolution is 1 ps
         34          3  0         37
         34          3  1         31
         34          3  2 4294967260
         34          3  3          0
         34          3  4          2
         34          3  5         35
         34          3  6         33
         34          3  7 4294967261
         34          3  8          0
         34          3  9          1
         34          3 10        272
         34          3 11          4
         34          3 12          4
         34          3 13         38
         34          3 14         30
         34          3 15          2
$finish called at time : 800 ns : File "C:/Users/Student/project_15/project_15.srcs/sources_1/imports/submission/test_alu.v" Line 46
